…
``` r
load("R/SimEpi/example_data/nhds_adult.RData")

nhds_adult <- nhds_adult %>% 
  mutate(id = row_number()) %>% 
  select(id,everything()) %>% 
  rename(los = care_days, age=age_years)

reg_data <- nhds_adult %>% 
  select(los, age, sex, race, region)

reg_data
```

    ## # A tibble: 129,242 x 5
    ##      los   age sex    race       region   
    ##    <int> <int> <fct>  <fct>      <fct>    
    ##  1     7    19 female white      west     
    ##  2     1    20 female black      midwest  
    ##  3     1    44 female black      northeast
    ##  4     3    80 female not_stated northeast
    ##  5     1    66 male   white      northeast
    ##  6     8    52 female white      south    
    ##  7    19    76 female white      south    
    ##  8     7    58 female white      northeast
    ##  9    15    78 female asian      south    
    ## 10     1    33 female white      northeast
    ## # … with 129,232 more rows
…
``` r
class_data <- nhds_adult %>% 
  mutate(died = dc_status=="dead") %>% 
  select(died, age, sex, race, region,adm_type)

class_data
```

    ## # A tibble: 129,242 x 6
    ##    died    age sex    race       region    adm_type 
    ##    <lgl> <int> <fct>  <fct>      <fct>     <fct>    
    ##  1 FALSE    19 female white      west      urgent   
    ##  2 FALSE    20 female black      midwest   urgent   
    ##  3 FALSE    44 female black      northeast elective 
    ##  4 FALSE    80 female not_stated northeast emergency
    ##  5 FALSE    66 male   white      northeast emergency
    ##  6 FALSE    52 female white      south     emergency
    ##  7 FALSE    76 female white      south     elective 
    ##  8 FALSE    58 female white      northeast elective 
    ##  9 FALSE    78 female asian      south     emergency
    ## 10 FALSE    33 female white      northeast elective 
    ## # … with 129,232 more rows
