…
``` r
load("R/SimEpi/example_data/nhds_adult.RData")
```

Now create a subset called nhds\_reduced that contains the following
variables
`age, sex, race, care_days, dx_adm, dx01, dx02, dx03, DRG, payor_primary, DRG, adm_type, adm_origin, dc_month, region, n_beds, hospital_ownership.`
Rename `age_years` to `age`. This should look like the following:

``` r
nhds_reduced
```

    ## # A tibble: 129,242 x 16
    ##      age sex   race  care_days dx_adm dx01  dx02  dx03  DRG   payor_primary
    ##    <int> <fct> <fct>     <int> <icd9> <icd> <icd> <icd> <chr> <fct>        
    ##  1    19 fema… white         7 <NA>   64403 64663 64723 778   other govern…
    ##  2    20 fema… black         1 29623  29623 <NA>  <NA>  885   Medicaid     
    ##  3    44 fema… black         1 24200  24200 4019  4280  627   other privat…
    ##  4    80 fema… not_…         3 7804   25060 78609 7804  074   Medicare     
    ##  5    66 male  white         1 78605  99739 4239  5119  206   Medicare     
    ##  6    52 fema… white         8 2989   96509 34839 1985  917   Medicaid     
    ##  7    76 fema… white        19 78079  1539  5070  25000 329   Medicare     
    ##  8    58 fema… white         7 0389   49322 <NA>  <NA>  192   Medicare     
    ##  9    78 fema… asian        15 311-   29633 59651 78830 885   Medicare     
    ## 10    33 fema… white         1 27801  27801 V854  30000 621   HMO or PPO   
    ## # … with 129,232 more rows, and 6 more variables: adm_type <fct>,
    ## #   adm_origin <fct>, dc_month <int>, region <fct>, n_beds <ord>,
    ## #   hospital_ownership <fct>
…
``` r
draw_patients <- function(n){
  
}
```

Confirm that your function is work and returns a random draw of the
correct size each time.

``` r
draw_patients(500)
```

    ## # A tibble: 500 x 16
    ##      age sex   race  care_days dx_adm dx01  dx02  dx03  DRG   payor_primary
    ##    <int> <fct> <fct>     <int> <icd9> <icd> <icd> <icd> <chr> <fct>        
    ##  1    68 fema… black         1 7840   2252  7840  34590 055   Medicare     
    ##  2    60 fema… white         1 5990   5990  5968  6186  690   Medicare     
    ##  3    72 male  white         4 20300  28800 20300 V4282 809   Medicare     
    ##  4    55 male  white         8 29590  29534 94810 94524 885   Medicare     
    ##  5    70 fema… white         4 82322  8248  70713 29281 493   Medicare     
    ##  6    66 male  white        19 4280   42823 32723 2766  293   Medicare     
    ##  7    76 male  white        15 <NA>   5718  45620 2867  441   Medicare     
    ##  8    27 fema… other         2 <NA>   V270  66311 66411 775   blue cross b…
    ##  9    88 male  white        11 78791  1537  41071 486-  374   Medicare     
    ## 10    50 fema… black         1 57400  57400 57410 4019  419   HMO or PPO   
    ## # … with 490 more rows, and 6 more variables: adm_type <fct>, adm_origin <fct>,
    ## #   dc_month <int>, region <fct>, n_beds <ord>, hospital_ownership <fct>
…
``` r
init_hospital <- draw_patients(hospital_size)

# view output
init_hospital
```

    ## # A tibble: 300 x 16
    ##      age sex   race  care_days dx_adm dx01  dx02  dx03  DRG   payor_primary
    ##    <int> <fct> <fct>     <int> <icd9> <icd> <icd> <icd> <chr> <fct>        
    ##  1    85 male  white         1 60001  60001 42822 78820 713   Medicare     
    ##  2    77 male  not_…         1 <NA>   42823 5849  2764  291   Medicare     
    ##  3    88 male  white         3 2859   53140 2851  5303  378   Medicare     
    ##  4    42 fema… white         7 78079  43311 40300 25062 038   Medicaid     
    ##  5    67 fema… white         2 486-   5070  7863  4019  178   Medicare     
    ##  6    90 fema… white         2 5990   5990  00863 2867  690   Medicare     
    ##  7    70 male  black         1 78650  4254  78650 7851  316   Medicare     
    ##  8    70 male  asian         6 41071  41071 41412 78551 237   Medicare     
    ##  9    80 fema… white         4 1728   27651 261-  1977  640   Medicare     
    ## 10    58 fema… white         1 226-   226-  2452  V142  627   blue cross b…
    ## # … with 290 more rows, and 6 more variables: adm_type <fct>, adm_origin <fct>,
    ## #   dc_month <int>, region <fct>, n_beds <ord>, hospital_ownership <fct>
…
Your updated dataset should then look like the following:

``` r
init_hospital
```

    ## # A tibble: 300 x 18
    ##      age sex   race  care_days dx_adm dx01  dx02  dx03  DRG   payor_primary
    ##    <int> <fct> <fct>     <int> <icd9> <icd> <icd> <icd> <chr> <fct>        
    ##  1    73 male  other         3 78900  57420 42731 V5861 446   Medicare     
    ##  2    23 male  black         3 6111   6111  <NA>  <NA>  585   other privat…
    ##  3    62 male  black        22 7245   72271 5849  4254  453   HMO or PPO   
    ##  4    86 fema… white         1 <NA>   V5332 42822 5990  227   Medicare     
    ##  5    30 fema… other         2 V221   V270  65421 64901 766   Medicaid     
    ##  6    46 fema… black         2 <NA>   6262  2189  4019  761   HMO or PPO   
    ##  7    76 male  white        13 35981  V5789 35981 496-  945   Medicare     
    ##  8    22 fema… not_…         3 64663  64663 59010 <NA>  781   not stated   
    ##  9    59 fema… white         2 <NA>   2449  5849  5990  643   Medicaid     
    ## 10    74 fema… not_…         2 <NA>   57400 2761  5601  418   HMO or PPO   
    ## # … with 290 more rows, and 8 more variables: adm_type <fct>, adm_origin <fct>,
    ## #   dc_month <int>, region <fct>, n_beds <ord>, hospital_ownership <fct>,
    ## #   admdate <date>, disdate <date>
…
  # return updated hospital and discharged patients
  return(list())
  
}
```

Test that your function works by running it on the initial hospital you
built above and then advancing the start date by 1.

``` r
discharge_admit_patients(init_hospital,start_date+1) 
```

    ## $hospital
    ## # A tibble: 300 x 18
    ##      age sex   race  care_days dx_adm dx01  dx02  dx03  DRG   payor_primary
    ##    <int> <fct> <fct>     <int> <icd9> <icd> <icd> <icd> <chr> <fct>        
    ##  1    73 male  other         3 78900  57420 42731 V5861 446   Medicare     
    ##  2    23 male  black         3 6111   6111  <NA>  <NA>  585   other privat…
    ##  3    62 male  black        22 7245   72271 5849  4254  453   HMO or PPO   
    ##  4    30 fema… other         2 V221   V270  65421 64901 766   Medicaid     
    ##  5    46 fema… black         2 <NA>   6262  2189  4019  761   HMO or PPO   
    ##  6    76 male  white        13 35981  V5789 35981 496-  945   Medicare     
    ##  7    22 fema… not_…         3 64663  64663 59010 <NA>  781   not stated   
    ##  8    59 fema… white         2 <NA>   2449  5849  5990  643   Medicaid     
    ##  9    74 fema… not_…         2 <NA>   57400 2761  5601  418   HMO or PPO   
    ## 10    29 fema… white         3 64294  64244 64844 311-  776   HMO or PPO   
    ## # … with 290 more rows, and 8 more variables: adm_type <fct>, adm_origin <fct>,
    ## #   dc_month <int>, region <fct>, n_beds <ord>, hospital_ownership <fct>,
    ## #   admdate <date>, disdate <date>
    ## 
    ## $discharges
    ## # A tibble: 57 x 18
    ##      age sex   race  care_days dx_adm dx01  dx02  dx03  DRG   payor_primary
    ##    <int> <fct> <fct>     <int> <icd9> <icd> <icd> <icd> <chr> <fct>        
    ##  1    86 fema… white         1 <NA>   V5332 42822 5990  227   Medicare     
    ##  2    23 fema… not_…         1 <NA>   V270  66331 65971 775   other privat…
    ##  3    29 fema… white         1 V221   V270  65991 34590 775   other privat…
    ##  4    71 male  other         1 <NA>   1629  51881 486-  180   Medicare     
    ##  5    64 fema… white         1 <NA>   8054  3051  4019  552   Medicare     
    ##  6    18 fema… white         1 65453  65453 64723 09954 781   Medicaid     
    ##  7    64 fema… white         1 78932  1591  5990  5119  841   blue cross b…
    ##  8    31 fema… black         1 <NA>   5128  <NA>  <NA>  165   HMO or PPO   
    ##  9    63 fema… not_…         1 41041  41041 42820 4254  247   Medicare     
    ## 10    51 fema… white         1 78900  57401 2452  2859  419   HMO or PPO   
    ## # … with 47 more rows, and 8 more variables: adm_type <fct>, adm_origin <fct>,
    ## #   dc_month <int>, region <fct>, n_beds <ord>, hospital_ownership <fct>,
    ## #   admdate <date>, disdate <date>
…
### Specify the type of hospital setting

There are different types of hospitals represented in the dataset (e.g.,
hospital region, number of beds and ownership). You may want to add
parameters to draw patients only from those hospitals that are similar
to the type of hospital you are trying to simulate. For example, maybe
you want to draw admissions from the same type of region, or from
hospitals with the same type of ownership.

``` r
nhds_adult %>% count(region,n_beds,hospital_ownership)
```

    ## # A tibble: 39 x 4
    ##    region    n_beds  hospital_ownership     n
    ##    <fct>     <ord>   <fct>              <int>
    ##  1 northeast 6-99    proprietary          264
    ##  2 northeast 6-99    government           111
    ##  3 northeast 6-99    non_profit          4411
    ##  4 northeast 100-199 non_profit          2825
    ##  5 northeast 200-299 government          2266
    ##  6 northeast 200-299 non_profit          3854
    ##  7 northeast 300-499 government           929
    ##  8 northeast 300-499 non_profit          2185
    ##  9 northeast 500+    non_profit          8077
    ## 10 midwest   6-99    government           145
    ## # … with 29 more rows
…
