…
Start by loading the NHDS to work with:

Your function should then allow you to add indicators as a new column.
Here is an example where we create an indicator for *C. difficile
infection* (CDI):

``` r
nhds_adult %>% 
  add_indicators(dx_codes = c("00845"), name = "cdi")
```

    ## # A tibble: 129,242 x 40
    ##    age_years sex   race  marital_status dc_month dc_status care_days region
    ##        <int> <fct> <fct> <fct>             <int> <fct>         <int> <fct> 
    ##  1        19 fema… white not_stated            2 home              7 west  
    ##  2        20 fema… black single                8 home              1 midwe…
    ##  3        44 fema… black not_stated            8 home              1 north…
    ##  4        80 fema… not_… not_stated           10 home              3 north…
    ##  5        66 male  white not_stated            6 short_te…         1 north…
    ##  6        52 fema… white not_stated            5 alive_NOS         8 south 
    ##  7        76 fema… white widowed              11 home             19 south 
    ##  8        58 fema… white widowed              12 alive_NOS         7 north…
    ##  9        78 fema… asian divorced              2 home             15 south 
    ## 10        33 fema… white not_stated            9 home              1 north…
    ## # … with 129,232 more rows, and 32 more variables: n_beds <ord>,
    ## #   hospital_ownership <fct>, dx01 <icd9cm>, dx02 <icd9cm>, dx03 <icd9cm>,
    ## #   dx04 <icd9cm>, dx05 <icd9cm>, dx06 <icd9cm>, dx07 <icd9cm>, dx08 <icd9cm>,
    ## #   dx09 <icd9cm>, dx10 <icd9cm>, dx11 <icd9cm>, dx12 <icd9cm>, dx13 <icd9cm>,
    ## #   dx14 <icd9cm>, dx15 <icd9cm>, pc01 <icd9cm_p>, pc02 <icd9cm_p>,
    ## #   pc03 <icd9cm_p>, pc04 <icd9cm_p>, pc05 <icd9cm_p>, pc06 <icd9cm_p>,
    ## #   pc07 <icd9cm_p>, pc08 <icd9cm_p>, payor_primary <fct>,
    ## #   payor_secondary <fct>, DRG <chr>, adm_type <fct>, adm_origin <fct>,
    ## #   dx_adm <icd9cm>, cdi <lgl>
…
Next write a function that takes 2 arguments, a vector of sample sizes
and the number of trials to run, and then runs multiple trials using the
`run_single_trial()` . Call this new function `run_trials()`. The output
of this function should return the means computed across multiple trials
for the different sample sizes. Here is an example of output (**Note:
again your output structure may differ from mine)**

``` r
run_trials(sample_sizes,100)
```

    ## # A tibble: 500 x 3
    ##    trial sample_size sample_mean
    ##    <int>       <dbl>       <dbl>
    ##  1     1          10     -0.145 
    ##  2     1          20      0.0992
    ##  3     1          50      0.0247
    ##  4     1         100     -0.136 
    ##  5     1         200     -0.0841
    ##  6     2          10     -0.165 
    ##  7     2          20     -0.326 
    ##  8     2          50     -0.0118
    ##  9     2         100      0.139 
    ## 10     2         200      0.0178
    ## # … with 490 more rows
…
