…
``` r
# covid_data <- read_csv("https://api.covidtracking.com/v1/states/daily.csv")
# save(covid_data,file = "data/covid/covid_tracking.RData")
load(file = "data/covid/covid_tracking.RData")
covid_data
```

    ## # A tibble: 19,205 x 55
    ##      date state positive probableCases negative pending totalTestResult…
    ##     <dbl> <chr>    <dbl>         <dbl>    <dbl>   <dbl> <chr>           
    ##  1 2.02e7 AK       53279            NA       NA      NA totalTestsViral 
    ##  2 2.02e7 AL      472423        101367  1816273      NA totalTestsPeopl…
    ##  3 2.02e7 AR      306736         62862  2285451      NA totalTestsViral 
    ##  4 2.02e7 AS           0            NA     2140      NA totalTestsViral 
    ##  5 2.02e7 AZ      780637         50509  2818265      NA totalTestsViral 
    ##  6 2.02e7 CA     3335926            NA       NA      NA totalTestsViral 
    ##  7 2.02e7 CO      405289         20744  2068091      NA totalTestEncoun…
    ##  8 2.02e7 CT      259372         15789  5700100      NA posNeg          
    ##  9 2.02e7 DC       38035            NA       NA      NA totalTestEncoun…
    ## 10 2.02e7 DE       80594          4000   516657      NA totalTestEncoun…
    ## # … with 19,195 more rows, and 48 more variables: totalTestResults <dbl>,
    ## #   hospitalizedCurrently <dbl>, hospitalizedCumulative <dbl>,
    ## #   inIcuCurrently <dbl>, inIcuCumulative <dbl>, onVentilatorCurrently <dbl>,
    ## #   onVentilatorCumulative <dbl>, recovered <dbl>, dataQualityGrade <chr>,
    ## #   lastUpdateEt <chr>, dateModified <dttm>, checkTimeEt <chr>, death <dbl>,
    ## #   hospitalized <dbl>, dateChecked <dttm>, totalTestsViral <dbl>,
    ## #   positiveTestsViral <dbl>, negativeTestsViral <dbl>,
    ## #   positiveCasesViral <dbl>, deathConfirmed <dbl>, deathProbable <dbl>,
    ## #   totalTestEncountersViral <dbl>, totalTestsPeopleViral <dbl>,
…
         total_cases = positive,
         total_tests = totalTestResults,
         total_deaths = death,
         current_hospitalized = hospitalizedCurrently,
         current_in_icu = inIcuCurrently,
         current_on_ventilator = onVentilatorCurrently,
         new_cases = positiveIncrease,
         new_tests = totalTestResultsIncrease,
         new_deaths = deathIncrease) %>% 
  inner_join(state_pop_data,by = "state") %>% 
  mutate(date=ymd(date))
covid_data
```

    ## # A tibble: 17,220 x 12
    ##    date       state total_cases total_tests total_deaths current_hospita…
    ##    <date>     <chr>       <dbl>       <dbl>        <dbl>            <dbl>
    ##  1 2021-02-07 AK          53279     1536911          279               44
    ##  2 2021-02-07 AL         472423     2187329         8515             1513
    ##  3 2021-02-07 AR         306736     2529325         5076              781
    ##  4 2021-02-07 AZ         780637     6982148        14048             2910
    ##  5 2021-02-07 CA        3335926    43994322        43942            12476
    ##  6 2021-02-07 CO         405289     5653529         5731              527
    ##  7 2021-02-07 CT         259372     5959472         7214              827
    ##  8 2021-02-07 DE          80594     1269888         1208              263
    ##  9 2021-02-07 FL        1745744    19849863        28161             5381
    ## 10 2021-02-07 GA         940991     6664276        15092             3740
    ## # … with 17,210 more rows, and 6 more variables: current_in_icu <dbl>,
    ## #   current_on_ventilator <dbl>, new_cases <dbl>, new_tests <dbl>,
    ## #   new_deaths <dbl>, population <dbl>
…
Your reshaped data should look like this:

``` r
plot_data <- covid_data %>% 
  filter(state=="IA") %>%
  select(date, total_cases,total_deaths) %>% 
  pivot_longer(cols = c(total_cases,total_deaths),names_to = "key", values_to = "value") %>% 
  mutate(key = ifelse(key == "total_cases","Total Cases", "Total Deaths"))
plot_data
```

    ## # A tibble: 678 x 3
    ##    date       key           value
    ##    <date>     <chr>         <dbl>
    ##  1 2021-02-07 Total Cases  271381
    ##  2 2021-02-07 Total Deaths   5108
    ##  3 2021-02-06 Total Cases  270935
    ##  4 2021-02-06 Total Deaths   5108
    ##  5 2021-02-05 Total Cases  270633
    ##  6 2021-02-05 Total Deaths   5067
    ##  7 2021-02-04 Total Cases  269984
    ##  8 2021-02-04 Total Deaths   5033
    ##  9 2021-02-03 Total Cases  269284
    ## 10 2021-02-03 Total Deaths   4975
    ## # … with 668 more rows
…
# fit model
fit <- lm(total_deaths ~ population, data = model_data)

model_data %>% 
  mutate(predicted_deaths=predict(fit)) %>% 
  filter(total_deaths>predicted_deaths) %>% 
  select(state,total_deaths,predicted_deaths) %>% 
  mutate(excess_deaths=total_deaths-predicted_deaths)
```

    ## # A tibble: 22 x 4
    ##    state total_deaths predicted_deaths excess_deaths
    ##    <chr>        <dbl>            <dbl>         <dbl>
    ##  1 AL            8515            6885.         1630.
    ##  2 AR            5076            4445.          631.
    ##  3 AZ           14048            9859.         4189.
    ##  4 CT            7214            5172.         2042.
    ##  5 GA           15092           14219.          873.
    ##  6 IA            5108            4630.          478.
    ##  7 IL           21738           17113.         4625.
    ##  8 IN           11817            9235.         2582.
    ##  9 LA            9119            6588.         2531.
    ## 10 MA           14999            9508.         5491.
    ## # … with 12 more rows
…
