…
Finally, after loading each of the datasets create one county-level
dataset for the simulation model that contains the variables for county,
population over age 65, total population and total number of COVID-19
cases in the county to date: call these variables
`county, pop_over_65, total_population, covid_cases`, respectively.
Since you will be modeling each county as if you are are at the starting
point of vaccine distribution in the state (i.e., December 15th), you
should use the total COVID-19 case count in each county from December
15th. Your dataset should then look like the following:

``` r
county_data
```

    ## # A tibble: 99 x 4
    ##    county     pop_over_65 total_population covid_cases
    ##    <chr>            <dbl>            <dbl>       <dbl>
    ##  1 Adair             1573             7054         513
    ##  2 Adams              842             3686         212
    ##  3 Allamakee         3100            13884        1027
    ##  4 Appanoose         2777            12352         880
    ##  5 Audubon           1361             5578         334
    ##  6 Benton            4643            25642        1873
    ##  7 Black Hawk       21181           132648       11882
    ##  8 Boone             4716            26484        1655
    ##  9 Bremer            4813            24911        2140
    ## 10 Buchanan          3725            21202        1333
    ## # … with 89 more rows
…
Your function should return a result that looks like the following:

``` r
initialize_counties(county_data) %>% 
  allocate_vaccine_pop(5000)
```

    ## # A tibble: 99 x 11
    ##    county pop_over_65 total_population covid_cases pop_pct pop_65_pct
    ##    <chr>        <dbl>            <dbl>       <dbl>   <dbl>      <dbl>
    ##  1 Adair         1573             7054         513 0.00224    0.00299
    ##  2 Adams          842             3686         212 0.00117    0.00160
    ##  3 Allam…        3100            13884        1027 0.00441    0.00589
    ##  4 Appan…        2777            12352         880 0.00393    0.00528
    ##  5 Audub…        1361             5578         334 0.00177    0.00259
    ##  6 Benton        4643            25642        1873 0.00815    0.00883
    ##  7 Black…       21181           132648       11882 0.0422     0.0403 
    ##  8 Boone         4716            26484        1655 0.00842    0.00896
    ##  9 Bremer        4813            24911        2140 0.00792    0.00915
    ## 10 Bucha…        3725            21202        1333 0.00674    0.00708
    ## # … with 89 more rows, and 5 more variables: under65_threshold <dbl>,
    ## #   over65_threshold <dbl>, under65_vac <dbl>, over65_vac <dbl>,
    ## #   allocation <dbl>
…
Here is an example of what the `run_sim()` function should produce.
Note: in the initial period seen here the allocation and date are set to
NA. However, for later iterations of the simulation these are replaced
by the week date and corresponding allocation; this can be seen in the
second example

``` r
run_sim(county_data,weekly_supply)
```

    ## # A tibble: 3,168 x 12
    ##    county pop_over_65 total_population covid_cases pop_pct pop_65_pct
    ##    <chr>        <dbl>            <dbl>       <dbl>   <dbl>      <dbl>
    ##  1 Adair         1573             7054         513 0.00224    0.00299
    ##  2 Adams          842             3686         212 0.00117    0.00160
    ##  3 Allam…        3100            13884        1027 0.00441    0.00589
    ##  4 Appan…        2777            12352         880 0.00393    0.00528
    ##  5 Audub…        1361             5578         334 0.00177    0.00259
    ##  6 Benton        4643            25642        1873 0.00815    0.00883
    ##  7 Black…       21181           132648       11882 0.0422     0.0403 
    ##  8 Boone         4716            26484        1655 0.00842    0.00896
    ##  9 Bremer        4813            24911        2140 0.00792    0.00915
    ## 10 Bucha…        3725            21202        1333 0.00674    0.00708
    ## # … with 3,158 more rows, and 6 more variables: under65_threshold <dbl>,
    ## #   over65_threshold <dbl>, under65_vac <dbl>, over65_vac <dbl>,
    ## #   allocation <dbl>, date <date>

``` r
run_sim(county_data,weekly_supply) %>% 
  filter(!is.na(date))
```

    ## # A tibble: 3,069 x 12
    ##    county pop_over_65 total_population covid_cases pop_pct pop_65_pct
    ##    <chr>        <dbl>            <dbl>       <dbl>   <dbl>      <dbl>
    ##  1 Adair         1573             7054         513 0.00224    0.00299
    ##  2 Adams          842             3686         212 0.00117    0.00160
    ##  3 Allam…        3100            13884        1027 0.00441    0.00589
    ##  4 Appan…        2777            12352         880 0.00393    0.00528
    ##  5 Audub…        1361             5578         334 0.00177    0.00259
    ##  6 Benton        4643            25642        1873 0.00815    0.00883
    ##  7 Black…       21181           132648       11882 0.0422     0.0403 
    ##  8 Boone         4716            26484        1655 0.00842    0.00896
    ##  9 Bremer        4813            24911        2140 0.00792    0.00915
    ## 10 Bucha…        3725            21202        1333 0.00674    0.00708
    ## # … with 3,059 more rows, and 6 more variables: under65_threshold <dbl>,
    ## #   over65_threshold <dbl>, under65_vac <dbl>, over65_vac <dbl>,
    ## #   allocation <dbl>, date <date>
…
